0,VERSION,*,*,S.U.P.E.R. AIML Bot version 0.0.4,update.aiml
0,BUILD,*,*,Tue Jun 06 16:24:51 IST 2023,update.aiml
0,DELEVLOPMENT ENVIRONMENT,*,*,Program AB 0.0.4.2 beta -- AI Foundation Reference AIML 2.0 implementation,update.aiml
